127.0.0.1 - - [30/May/2019:15:40:01 -0400] "GET / HTTP/1.1" 404 1074
0:0:0:0:0:0:0:1 - - [30/May/2019:15:40:02 -0400] "OPTIONS /bankingserver-api-diners/oauth/token HTTP/1.1" 200 -
0:0:0:0:0:0:0:1 - - [30/May/2019:15:40:06 -0400] "OPTIONS /bankingserver-api-diners/oauth/token HTTP/1.1" 200 -
0:0:0:0:0:0:0:1 - - [30/May/2019:15:40:12 -0400] "OPTIONS /bankingserver-api-diners/oauth/token HTTP/1.1" 200 -
0:0:0:0:0:0:0:1 - - [30/May/2019:15:41:25 -0400] "OPTIONS /bankingserver-api-diners/oauth/token HTTP/1.1" 200 -
0:0:0:0:0:0:0:1 - - [30/May/2019:15:41:42 -0400] "OPTIONS /bankingserver-api-diners/oauth/token HTTP/1.1" 200 -
127.0.0.1 - - [30/May/2019:15:42:23 -0400] "GET / HTTP/1.1" 404 1074
0:0:0:0:0:0:0:1 - - [30/May/2019:15:42:53 -0400] "OPTIONS /bankingserver-api-diners/oauth/token HTTP/1.1" 200 -
